Interpolated and extrapolated levels and changes panel across time bins — ppts_easia_weuro_world_pchg • PrjCompPPTS
…
#>  Mode  :character   Median : 0.018   Median :   0.020   Median :1.505e+05  
#>                     Mean   : 0.055   Mean   :   0.097   Mean   :2.921e+07  
#>                     3rd Qu.: 0.050   3rd Qu.:   0.057   3rd Qu.:2.729e+06  
#>                     Max.   : 9.758   Max.   :1663.739   Max.   :1.977e+09  
#>                     NA's   :19120    NA's   :4155       NA's   :11215      
#>  value_interp1      
#>  Min.   :2.000e+00  
#>  1st Qu.:6.790e+03  
#>  Median :1.125e+05  
#>  Mean   :2.600e+07  
#>  3rd Qu.:2.213e+06  
#>  Max.   :1.977e+09  
#>                     
print(ppts_easia_weuro_world_pchg)
#> # A tibble: 82,685 × 9
#>    location_code location_level variable year_bins_type year_bins    pchg
#>    <fct>         <fct>          <fct>    <fct>          <chr>       <dbl>
#>  1 ABW           country        gdp      1920t2020i05   1981-1985 NA     
#>  2 ABW           country        gdp      1920t2020i05   1986-1990 NA     
#>  3 ABW           country        gdp      1920t2020i05   1991-1995  0.0532
#>  4 ABW           country        gdp      1920t2020i05   1996-2000  0.0640
#>  5 ABW           country        gdp      1920t2020i05   2001-2005 -0.0504
#>  6 ABW           country        gdp      1920t2020i05   2006-2010 -0.129 
#>  7 ABW           country        gdp      1920t2020i05   2011-2015  0.0982
#>  8 ABW           country        gdp      1920t2020i05   2016-2020 NA     
#>  9 ABW           country        student  1920t2020i05   1991-1995 NA     
#> 10 ABW           country        student  1920t2020i05   1996-2000 NA     
#> # ℹ 82,675 more rows
#> # ℹ 3 more variables: pchg_interp1 <dbl>, value <dbl>, value_interp1 <dbl>
…
