Elasticities across all potential variable pairs and for different time frames, non-interpolated — ppts_easia_weuro_world_elas_interp1 • PrjCompPPTS
…
#>  Mode  :character   Median :   0.105   Median :1.120e+05   Mode  :character  
#>                     Mean   :   0.305   Mean   :2.617e+07                     
#>                     3rd Qu.:   0.278   3rd Qu.:2.234e+06                     
#>                     Max.   :1663.739   Max.   :1.977e+09                     
#>                     NA's   :20750                                            
#>  pchg_interp1_numerator elasticity_interp1
#>  Min.   :  -0.87        Min.   :-Inf      
#>  1st Qu.:  -0.01        1st Qu.:0.07      
#>  Median :   0.11        Median :1.00      
#>  Mean   :   0.31        Mean   : NaN      
#>  3rd Qu.:   0.28        3rd Qu.:1.00      
#>  Max.   :1663.74        Max.   : Inf      
#>  NA's   :47082          NA's   :50369     
print(ppts_easia_weuro_world_elas_interp1)
#> # A tibble: 128,825 × 10
#>    location_code location_level variable year_bins_type year_bins pchg_interp1
#>    <fct>         <fct>          <fct>    <fct>          <chr>            <dbl>
#>  1 ABW           country        gdp      1920t2020i05   1981-1985        1.25 
#>  2 ABW           country        gdp      1920t2020i05   1981-1985        1.25 
#>  3 ABW           country        gdp      1920t2020i05   1981-1985        1.25 
#>  4 ABW           country        gdp      1920t2020i05   1981-1985        1.25 
#>  5 ABW           country        gdp      1920t2020i05   1981-1985        1.25 
#>  6 ABW           country        gdp      1920t2020i05   1986-1990        0.903
#>  7 ABW           country        gdp      1920t2020i05   1986-1990        0.903
#>  8 ABW           country        gdp      1920t2020i05   1986-1990        0.903
#>  9 ABW           country        gdp      1920t2020i05   1986-1990        0.903
#> 10 ABW           country        gdp      1920t2020i05   1986-1990        0.903
#> # ℹ 128,815 more rows
#> # ℹ 4 more variables: value_interp1 <dbl>, variable_numerator <chr>,
#> #   pchg_interp1_numerator <dbl>, elasticity_interp1 <dbl>
…
