Table: Korea youth, students, teachers, and schools • PrjCompPPTS
…
print(df_fpc_korea, n = 40)
#> # A tibble: 190 × 15
#>    location_code location_level vartype variable  year1970  year1980  year1990
#>    <fct>         <fct>          <chr>   <chr>        <dbl>     <dbl>     <dbl>
#>  1 KOR_Metro     multiprovince  lvl     school      1309      1525      1881  
#>  2 KOR_Metro     multiprovince  lvl     student  2531380   3004561   3109104  
#>  3 KOR_Metro     multiprovince  lvl     teacher    37375     51517     72501  
#>  4 KOR_Metro     multiprovince  rat     s2t           67.7      58.3      42.9
#>  5 KOR_Metro     multiprovince  rat     s2s         1934.     1970.     1653. 
#>  6 KOR_NonMetro  multiprovince  lvl     school      4652      4962      4454  
#>  7 KOR_NonMetro  multiprovince  lvl     student  3217921   2653441   1759416  
#>  8 KOR_NonMetro  multiprovince  lvl     teacher    63720     67547     64299  
#>  9 KOR_NonMetro  multiprovince  rat     s2t           50.5      39.3      27.4
#> 10 KOR_NonMetro  multiprovince  rat     s2s          692.      535.      395. 
#> 11 KOR_Busan     province       lvl     school        99       137       221  
#> 12 KOR_Busan     province       lvl     student   287059    446162    457057  
#> 13 KOR_Busan     province       lvl     teacher     4120      7420     10426  
#> 14 KOR_Busan     province       rat     s2t           69.7      60.1      43.8
#> 15 KOR_Busan     province       rat     s2s         2900.     3257.     2068. 
#> 16 KOR_Chungbuk  province       lvl     school       372       397       337  
#> 17 KOR_Chungbuk  province       lvl     student   310348    222453    153273  
#> 18 KOR_Chungbuk  province       lvl     teacher     6043      6237      5353  
#> 19 KOR_Chungbuk  province       rat     s2t           51.4      35.7      28.6
#> 20 KOR_Chungbuk  province       rat     s2s          834.      560.      455. 
#> 21 KOR_Chungnam  province       lvl     school       510       546       536  
#> 22 KOR_Chungnam  province       lvl     student   349484    279723    204769  
#> 23 KOR_Chungnam  province       lvl     teacher     7088      7427      7470  
#> 24 KOR_Chungnam  province       rat     s2t           49.3      37.7      27.4
#> 25 KOR_Chungnam  province       rat     s2s          685.      512.      382. 
#> 26 KOR_Daegu     province       lvl     school        81        86       118  
#> 27 KOR_Daegu     province       lvl     student   282466    243379    255071  
#> 28 KOR_Daegu     province       lvl     teacher     3884      4196      5692  
#> 29 KOR_Daegu     province       rat     s2t           72.7      58.0      44.8
#> 30 KOR_Daegu     province       rat     s2s         3487.     2830.     2162. 
#> 31 KOR_Daejeon   province       lvl     school        74        79        79  
#> 32 KOR_Daejeon   province       lvl     student   191964    153645    120318  
#> 33 KOR_Daejeon   province       lvl     teacher     2630      2756      2937  
#> 34 KOR_Daejeon   province       rat     s2t           73.0      55.7      41.0
#> 35 KOR_Daejeon   province       rat     s2s         2594.     1945.     1523. 
#> 36 KOR_Gangwon   province       lvl     school       607       618       499  
#> 37 KOR_Gangwon   province       lvl     student   370844    292446    188114  
#> 38 KOR_Gangwon   province       lvl     teacher     7100      7514      7371  
#> 39 KOR_Gangwon   province       rat     s2t           52.2      38.9      25.5
#> 40 KOR_Gangwon   province       rat     s2s          611.      473.      377. 
#> # ℹ 150 more rows
#> # ℹ 8 more variables: year2000 <dbl>, year2010 <dbl>, year2020 <dbl>,
#> #   chg_20v70 <dbl>, chg_20v80 <dbl>, chg_20v90 <dbl>, chg_20v00 <dbl>,
#> #   chg_20v10 <dbl>
…
