Table: Western Europe East Asia youth, students, teachers, and schools • PrjCompPPTS
…
#> [1] "year2000"
#> [1] "year2020"
#> dim FPC: 144
#> dim FPC: 16
#> F-376864, SD3
#> [1] "chg_20v10"
#> [1] "year2010"
#> [1] "year2020"
#> dim FPC: 144
#> dim FPC: 17
#> F-376864, S4
#> dim FPC: 144
#> dim FPC: 17
print(df_fpc_weea, n = 40)
#> # A tibble: 144 × 17
#>    location_code location_level vartype variable    year1960   year1970 year1980
#>    <fct>         <fct>          <chr>   <chr>          <dbl>      <dbl>    <dbl>
#>  1 AUT           country        lvl     school        4393       3.97e3   3.45e3
#>  2 AUT           country        lvl     student     516110       5.96e5   4.01e5
#>  3 AUT           country        lvl     teacher      21499       2.48e4   2.75e4
#>  4 AUT           country        lvl     youthpop   1566864       1.84e6   1.55e6
#>  5 AUT           country        rat     y2t             72.9     7.40e1   5.63e1
#>  6 AUT           country        rat     s2t             24.0     2.40e1   1.46e1
#>  7 AUT           country        rat     y2s            357.      4.62e2   4.49e2
#>  8 AUT           country        rat     s2s            117.      1.50e2   1.16e2
#>  9 CHE           country        lvl     school          NA      NA       NA     
#> 10 CHE           country        lvl     student     573052.      5.32e5   4.40e5
#> 11 CHE           country        lvl     teacher      17449.      2.09e4   2.52e4
#> 12 CHE           country        lvl     youthpop   1315049.      1.37e6   1.28e6
#> 13 CHE           country        rat     y2t             75.4     6.53e1   5.07e1
#> 14 CHE           country        rat     s2t             32.8     2.54e1   1.75e1
#> 15 CHE           country        rat     y2s             NA      NA       NA     
#> 16 CHE           country        rat     s2s             NA      NA       NA     
#> 17 CHN           country        lvl     school      726484       9.61e5   9.17e5
#> 18 CHN           country        lvl     student   93791000       1.05e8   1.46e8
#> 19 CHN           country        lvl     teacher    2693000       3.61e6   5.50e6
#> 20 CHN           country        lvl     youthpop 265641893       3.31e8   3.53e8
#> 21 CHN           country        rat     y2t             98.6     9.15e1   6.41e1
#> 22 CHN           country        rat     s2t             34.8     2.91e1   2.66e1
#> 23 CHN           country        rat     y2s            366.      3.44e2   3.84e2
#> 24 CHN           country        rat     s2s            129.      1.10e2   1.59e2
#> 25 DEU           country        lvl     school          NA      NA       NA     
#> 26 DEU           country        lvl     teacher         NA      NA       NA     
#> 27 DEU           country        lvl     youthpop        NA      NA       NA     
#> 28 DEU           country        rat     y2t             NA      NA       NA     
#> 29 DEU           country        rat     y2s             NA      NA       NA     
#> 30 DEU           country        lvl     student         NA      NA       NA     
#> 31 DEU           country        rat     s2t             NA      NA       NA     
#> 32 DEU           country        rat     s2s             NA      NA       NA     
#> 33 FRA           country        lvl     school          NA      NA        6.07e4
#> 34 FRA           country        lvl     student         NA      NA        6.13e6
#> 35 FRA           country        lvl     teacher         NA      NA        2.92e5
#> 36 FRA           country        lvl     youthpop        NA      NA        1.24e7
#> 37 FRA           country        rat     y2t             NA      NA        4.24e1
#> 38 FRA           country        rat     s2t             NA      NA        2.10e1
#> 39 FRA           country        rat     y2s             NA      NA        2.04e2
#> 40 FRA           country        rat     s2s             NA      NA        1.01e2
#> # ℹ 104 more rows
#> # ℹ 10 more variables: year1990 <dbl>, year2000 <dbl>, year2010 <dbl>,
#> #   year2020 <dbl>, chg_20v60 <dbl>, chg_20v70 <dbl>, chg_20v80 <dbl>,
#> #   chg_20v90 <dbl>, chg_20v00 <dbl>, chg_20v10 <dbl>
…
